Cpu Status at Tue Apr 10 11:10:05 2018
 
      Name Sta Pr Stack CPU%          Time
      IDLE RDY  0   432   88    4471085 us
   cpu inf RDY  1  2720    0       4842 us
   produce RDY  1  3888    5     267229 us
    logger BLK  1  1368    0         22 us
   consume SUS  1  3944    0       1499 us
   sd writ BLK  3  3320    1      68445 us
   watchdo BLK  3  3344    0      43117 us
   termina BLK  3  3368 85316 4292720214 us

Cpu Status at Tue Apr 10 11:10:10 2018
 
      Name Sta Pr Stack CPU%          Time
      IDLE RDY  0   432   89    8946808 us
   cpu inf RDY  1  2720    0      22663 us
   produce BLK  1  3888    5     534339 us
    logger BLK  1  1368    0         22 us
   consume SUS  1  3944    0       2923 us
   sd writ BLK  3  3320    1     129500 us
   watchdo BLK  3  3344    0      77407 us
   termina BLK  3  3368 42717 4292777861 us

Cpu Status at Tue Apr 10 11:10:15 2018
 
      Name Sta Pr Stack CPU%          Time
      IDLE RDY  0   432   89   13421858 us
   cpu inf RDY  1  2720    0      35245 us
    logger BLK  1  1368    0         22 us
   produce BLK  1  3888    5     801437 us
   consume SUS  1  3944    0       4382 us
   termina BLK  3  3368 28500 4292835426 us
   sd writ BLK  3  3320    1     188503 us
   watchdo BLK  3  3344    0     114805 us

Cpu Status at Tue Apr 10 11:10:20 2018
 
      Name Sta Pr Stack CPU%          Time
      IDLE RDY  0   432   89   17897883 us
   cpu inf RDY  1  2720    0      47908 us
    logger BLK  1  1368    0         22 us
   produce BLK  1  3888    5    1068562 us
   consume SUS  1  3944    0       5829 us
   termina BLK  3  3368 21383 4292892992 us
   sd writ BLK  3  3320    1     248822 us
   watchdo BLK  3  3344    0     149667 us

Cpu Status at Tue Apr 10 11:10:25 2018
 
      Name Sta Pr Stack CPU%          Time
      IDLE RDY  0   432   89   22385791 us
   cpu inf RDY  1  2720    0      60583 us
    logger BLK  1  1368    0         22 us
   produce BLK  1  3888    5    1336347 us
   consume SUS  1  3944    0       7280 us
   termina BLK  3  3368 17111 4292950555 us
   watchdo BLK  3  3344    0     176504 us
   sd writ BLK  3  3320    1     304536 us

Cpu Status at Tue Apr 10 11:10:30 2018
 
      Name Sta Pr Stack CPU%          Time
      IDLE RDY  0   432   89   26876799 us
   produce RDY  1  3888    5    1604334 us
   cpu inf RDY  1  2720    0      74124 us
   consume RDY  1  3944    0       8723 us
    logger BLK  1  1368    0         22 us
   watchdo BLK  3  3344    0     211351 us
   sd writ BLK  3  3320    1     348913 us
   termina BLK  3  3368 14261 4293008145 us

Cpu Status at Tue Apr 10 11:10:35 2018
 
      Name Sta Pr Stack CPU%          Time
      IDLE RDY  0   432   89   31353036 us
   cpu inf RDY  1  2720    0      85876 us
    logger BLK  1  1368    0         22 us
   produce BLK  1  3888    5    1871723 us
   consume SUS  1  3944    0      10204 us
   termina BLK  3  3368 12225 4293066351 us
   watchdo BLK  3  3344    0     248599 us
   sd writ BLK  3  3320    1     405880 us

Cpu Status at Tue Apr 10 11:10:40 2018
 
      Name Sta Pr Stack CPU%          Time
      IDLE RDY  0   432   90   36168257 us
   cpu inf RDY  1  2720    0      97373 us
    logger BLK  1  1368    0         22 us
   produce SUS  1  3888    4    1878289 us
   consume SUS  1  3944    0      10233 us
   watchdo BLK  3  3344    0     299421 us
   sd writ BLK  3  3320    1     464656 us
   termina BLK  3  3296 10691 4293132452 us

Cpu Status at Tue Apr 10 11:10:46 2018
 
      Name Sta Pr Stack CPU%          Time
      IDLE RDY  0   432   90   40996750 us
   cpu inf RDY  1  2720    0     110254 us
    logger BLK  1  1368    0         22 us
   consume SUS  1  3944    0      10233 us
   produce SUS  1  3888    4    1878289 us
   watchdo BLK  3  3344    0     344669 us
   sd writ BLK  3  3320    1     527267 us
   termina BLK  3  3296 9499 4293190040 us

Cpu Status at Tue Apr 10 11:10:51 2018
 
      Name Sta Pr Stack CPU%          Time
      IDLE RDY  0   432   91   45812768 us
   cpu inf RDY  1  2720    0     123009 us
    logger BLK  1  1368    0         22 us
   produce SUS  1  3888    3    1878289 us
   consume SUS  1  3944    0      10233 us
   watchdo BLK  3  3344    0     410926 us
   sd writ BLK  3  3320    1     593486 us
   termina BLK  3  3296 8545 4293247603 us

Cpu Status at Tue Apr 10 11:10:56 2018
 
      Name Sta Pr Stack CPU%          Time
      IDLE RDY  0   432   91   50638134 us
   cpu inf RDY  1  2720    0     135708 us
    logger BLK  1  1368    0         22 us
   consume SUS  1  3944    0      10233 us
   produce SUS  1  3888    3    1878289 us
   watchdo BLK  3  3344    0     456215 us
   sd writ BLK  3  3320    1     658368 us
   termina BLK  3  3296 7766 4293305191 us

Cpu Status at Tue Apr 10 11:11:01 2018
 
      Name Sta Pr Stack CPU%          Time
      IDLE RDY  0   432   91   55453698 us
   cpu inf RDY  1  2720    0     148538 us
    logger BLK  1   844    0        121 us
   produce SUS  1  3888    3    1878289 us
   consume SUS  1  3944    0      10233 us
   watchdo BLK  3  3344    0     524711 us
   sd writ BLK  3  3320    1     722540 us
   termina BLK  3  3296 7116 4293362822 us

Cpu Status at Tue Apr 10 11:11:06 2018
 
      Name Sta Pr Stack CPU%          Time
      IDLE RDY  0   432   92   60280656 us
   cpu inf RDY  1  2720    0     161393 us
    logger BLK  1   844    0        121 us
   consume SUS  1  3944    0      10233 us
   produce SUS  1  3888    2    1878289 us
   watchdo BLK  3  3344    0     568650 us
   sd writ BLK  3  3320    1     788017 us
   termina BLK  3  3296 6568 4293420409 us

Cpu Status at Tue Apr 10 11:11:11 2018
 
      Name Sta Pr Stack CPU%          Time
      IDLE RDY  0   432   92   65097472 us
   cpu inf RDY  1  2720    0     172852 us
    logger BLK  1   844    0        121 us
   produce SUS  1  3888    2    1878289 us
   consume SUS  1  3944    0      10233 us
   watchdo BLK  3  3344    0     635755 us
   sd writ BLK  3  3320    1     851901 us
   termina BLK  3  3296 6097 4293477968 us

Cpu Status at Tue Apr 10 11:11:16 2018
 
      Name Sta Pr Stack CPU%          Time
      IDLE RDY  0   432   92   69923523 us
   cpu inf RDY  1  2720    0     185665 us
    logger BLK  1   844    0        121 us
   consume SUS  1  3944    0      10233 us
   produce SUS  1  3888    2    1878289 us
   watchdo BLK  3  3344    0     679574 us
   sd writ BLK  3  3320    1     918458 us
   termina BLK  3  3296 5690 4293535549 us

Cpu Status at Tue Apr 10 11:11:21 2018
 
      Name Sta Pr Stack CPU%          Time
      IDLE RDY  0   432   92   74741165 us
   cpu inf RDY  1  2720    0     198593 us
    logger BLK  1   844    0        121 us
   produce SUS  1  3888    2    1878289 us
   consume SUS  1  3944    0      10233 us
   watchdo BLK  3  3344    0     746362 us
   sd writ BLK  3  3320    1     982289 us
   termina BLK  3  3296 5333 4293593132 us

